// Jest Snapshot v1, https://goo.gl/fbAQLP

exports[`ExtensionPointInfo should only show the the extension point icon if dicovery is enabled: discovery disabled, icon is hidden 1`] = `
<DocumentFragment>
  <p>
    Test extension point
  </p>
</DocumentFragment>
`;

exports[`ExtensionPointInfo should only show the the extension point icon if dicovery is enabled: discovery enabled, icon is shown 1`] = `
<DocumentFragment>
  <p>
    Test extension point
  </p>
</DocumentFragment>
`;

exports[`ExtensionPointInfo should show the extension info in a modal when the icon is clicked: extension info modal opened 1`] = `
<div
  id="___cse_info_container"
  style="overflow-y: auto; overflow-x: hidden; padding: 24px; flex: 1 1 auto;"
>
  <h2>
    Attributes
  </h2>
  <p>
    List of attributes supported by this extension point.
  </p>
  <p />
  <table
    class="css-1qasree"
  >
    <thead>
      <tr
        class="css-19act59"
      >
        <th
          class="css-1hdb03v"
        >
          Name
        </th>
        <th
          class="css-1hdb03v"
        >
          Type
        </th>
        <th
          class="css-1hdb03v"
        >
          Required
        </th>
        <th
          class="css-1hdb03v"
        >
          Description
        </th>
      </tr>
    </thead>
    <tbody>
      <tr
        class="css-19n8cn9"
      >
        <td
          class="css-f1b4tf"
          width="15%"
        >
           
          type
        </td>
        <td
          class="css-f1b4tf"
          width="15%"
        >
          <a
            href=""
          >
            AvailableTypes!
          </a>
        </td>
        <td
          class="css-f1b4tf"
          width="10%"
        >
          true
        </td>
        <td
          class="css-f1b4tf"
        >
          Extension type
        </td>
      </tr>
      <tr
        class="css-19n8cn9"
      >
        <td
          class="css-f1b4tf"
          width="15%"
        >
           
          label
        </td>
        <td
          class="css-f1b4tf"
          width="15%"
        >
          <a
            href=""
          >
            String!
          </a>
        </td>
        <td
          class="css-f1b4tf"
          width="10%"
        >
          true
        </td>
        <td
          class="css-f1b4tf"
        />
      </tr>
      <tr
        class="css-19n8cn9"
      >
        <td
          class="css-f1b4tf"
          width="15%"
        >
           
          glyph
        </td>
        <td
          class="css-f1b4tf"
          width="15%"
        >
          <a
            href=""
          >
            GlyphType
          </a>
        </td>
        <td
          class="css-f1b4tf"
          width="10%"
        >
          false
        </td>
        <td
          class="css-f1b4tf"
        >
          Glyph name
        </td>
      </tr>
      <tr
        class="css-19n8cn9"
      >
        <td
          class="css-f1b4tf"
          width="15%"
        >
           
          hidden
        </td>
        <td
          class="css-f1b4tf"
          width="15%"
        >
          <a
            href=""
          >
            Boolean
          </a>
        </td>
        <td
          class="css-f1b4tf"
          width="10%"
        >
          false
        </td>
        <td
          class="css-f1b4tf"
        >
          Hidden flag to hide web-item
        </td>
      </tr>
      <tr
        class="css-19n8cn9"
      >
        <td
          class="css-f1b4tf"
          width="15%"
        >
           
          onAction
        </td>
        <td
          class="css-f1b4tf"
          width="15%"
        >
          <a
            href=""
          >
            Function
          </a>
        </td>
        <td
          class="css-f1b4tf"
          width="10%"
        >
          false
        </td>
        <td
          class="css-f1b4tf"
        >
          Callback triggered on user interaction with the Web-item. Signature depends on web-item type.
        </td>
      </tr>
    </tbody>
  </table>
  <h2>
    Context
  </h2>
  <p>
    List of values provided by this extension point as context.
  </p>
  <p />
  <table
    class="css-1qasree"
  >
    <thead>
      <tr
        class="css-19act59"
      >
        <th
          class="css-1hdb03v"
        >
          Name
        </th>
        <th
          class="css-1hdb03v"
        >
          Type
        </th>
        <th
          class="css-1hdb03v"
        >
          Required
        </th>
        <th
          class="css-1hdb03v"
        >
          Description
        </th>
      </tr>
    </thead>
    <tbody>
      <tr
        class="css-19n8cn9"
      >
        <td
          class="css-f1b4tf"
          width="15%"
        >
           
          value
        </td>
        <td
          class="css-f1b4tf"
          width="15%"
        >
          <a
            href=""
          >
            Number
          </a>
        </td>
        <td
          class="css-f1b4tf"
          width="10%"
        >
          false
        </td>
        <td
          class="css-f1b4tf"
        />
      </tr>
    </tbody>
  </table>
  <h2>
    Types reference
  </h2>
  <h3>
    <div
      name="FooInput"
    >
      FooInput
    </div>
  </h3>
  <p />
  <table
    class="css-1qasree"
  >
    <thead>
      <tr
        class="css-19act59"
      >
        <th
          class="css-1hdb03v"
        >
          Name
        </th>
        <th
          class="css-1hdb03v"
        >
          Type
        </th>
        <th
          class="css-1hdb03v"
        >
          Required
        </th>
        <th
          class="css-1hdb03v"
        >
          Description
        </th>
      </tr>
    </thead>
    <tbody>
      <tr
        class="css-19n8cn9"
      >
        <td
          class="css-f1b4tf"
          width="15%"
        >
           
          foo
        </td>
        <td
          class="css-f1b4tf"
          width="15%"
        >
          <a
            href=""
          >
            String!
          </a>
        </td>
        <td
          class="css-f1b4tf"
          width="10%"
        >
          true
        </td>
        <td
          class="css-f1b4tf"
        />
      </tr>
    </tbody>
  </table>
  <h3>
    <div
      name="GlyphType"
    >
      GlyphType
    </div>
  </h3>
  <p>
    Enum type with the following values: 
    <b>
      cross, tick
    </b>
  </p>
  <h3>
    <div
      name="AvailableTypes"
    >
      AvailableTypes
    </div>
  </h3>
  <p>
    Union of the following types:
     
    
    <a
      href=""
    >
      ModalType
    </a>
    , 
    <a
      href=""
    >
      LinkType
    </a>
    , 
    <a
      href=""
    >
      ButtonType
    </a>
    , 
    <a
      href=""
    >
      PanelType
    </a>
  </p>
  <h3>
    <div
      name="ModalType"
    >
      ModalType
    </div>
  </h3>
  <p>
    The value must be the constant "modal".
  </p>
  <h3>
    <div
      name="LinkType"
    >
      LinkType
    </div>
  </h3>
  <p>
    The value must be the constant "link".
  </p>
  <h3>
    <div
      name="ButtonType"
    >
      ButtonType
    </div>
  </h3>
  <p>
    The value must be the constant "button".
  </p>
  <h3>
    <div
      name="PanelType"
    >
      PanelType
    </div>
  </h3>
  <p>
    The value must be the constant "panel".
  </p>
  <h3>
    <div
      name="String"
    >
      String
    </div>
  </h3>
  <p>
    The \`String\` type represents textual data.
  </p>
  <h3>
    <div
      name="Boolean"
    >
      Boolean
    </div>
  </h3>
  <p>
    The \`Boolean\` type represents \`true\` or \`false\`.
  </p>
  <h3>
    <div
      name="Function"
    >
      Function
    </div>
  </h3>
  <p>
    The \`Function\` type represents any javascript function.
  </p>
  <h3>
    <div
      name="Number"
    >
      Number
    </div>
  </h3>
  <p>
    The value should be a number.
  </p>
</div>
`;
